{
    "/demo1/plugins/global/plugins.bundle.js": "/demo1/plugins/global/plugins.bundle.js",
    "/demo1/js/scripts.bundle.js": "/demo1/js/scripts.bundle.js",
    "/demo1/plugins/custom/ckeditor/ckeditor-balloon-block.bundle.js": "/demo1/plugins/custom/ckeditor/ckeditor-balloon-block.bundle.js",
    "/demo1/plugins/custom/ckeditor/ckeditor-balloon.bundle.js": "/demo1/plugins/custom/ckeditor/ckeditor-balloon.bundle.js",
    "/demo1/plugins/custom/ckeditor/ckeditor-classic.bundle.js": "/demo1/plugins/custom/ckeditor/ckeditor-classic.bundle.js",
    "/demo1/plugins/custom/ckeditor/ckeditor-document.bundle.js": "/demo1/plugins/custom/ckeditor/ckeditor-document.bundle.js",
    "/demo1/plugins/custom/ckeditor/ckeditor-inline.bundle.js": "/demo1/plugins/custom/ckeditor/ckeditor-inline.bundle.js",
    "/demo1/plugins/custom/draggable/draggable.bundle.js": "/demo1/plugins/custom/draggable/draggable.bundle.js",
    "/demo1/plugins/custom/leaflet/leaflet.bundle.js": "/demo1/plugins/custom/leaflet/leaflet.bundle.js",
    "/demo1/plugins/custom/prismjs/prismjs.bundle.js": "/demo1/plugins/custom/prismjs/prismjs.bundle.js",
    "/demo1/plugins/custom/tinymce/tinymce.bundle.js": "/demo1/plugins/custom/tinymce/tinymce.bundle.js",
    "/demo1/js/custom/account/settings/profile-details.js": "/demo1/js/custom/account/settings/profile-details.js",
    "/demo1/js/custom/account/settings/signin-methods.js": "/demo1/js/custom/account/settings/signin-methods.js",
    "/demo1/js/custom/authentication/password-reset/new-password.js": "/demo1/js/custom/authentication/password-reset/new-password.js",
    "/demo1/js/custom/authentication/password-reset/password-reset.js": "/demo1/js/custom/authentication/password-reset/password-reset.js",
    "/demo1/js/custom/authentication/sign-in/general.js": "/demo1/js/custom/authentication/sign-in/general.js",
    "/demo1/js/custom/authentication/sign-up/general.js": "/demo1/js/custom/authentication/sign-up/general.js",
    "/demo1/js/custom/modals/two-factor-authentication.js": "/demo1/js/custom/modals/two-factor-authentication.js",
    "/demo1/js/layout/app.js": "/demo1/js/layout/app.js",
    "/demo1/js/vendors/plugins/datatables.init.js": "/demo1/js/vendors/plugins/datatables.init.js",
    "/demo1/js/custom/documentation/base/indicator.js": "/demo1/js/custom/documentation/base/indicator.js",
    "/demo1/js/custom/documentation/base/rotate.js": "/demo1/js/custom/documentation/base/rotate.js",
    "/demo1/js/custom/documentation/charts/apexcharts.js": "/demo1/js/custom/documentation/charts/apexcharts.js",
    "/demo1/js/custom/documentation/charts/chartjs.js": "/demo1/js/custom/documentation/charts/chartjs.js",
    "/demo1/js/custom/documentation/charts/flotcharts/axis.js": "/demo1/js/custom/documentation/charts/flotcharts/axis.js",
    "/demo1/js/custom/documentation/charts/flotcharts/bar.js": "/demo1/js/custom/documentation/charts/flotcharts/bar.js",
    "/demo1/js/custom/documentation/charts/flotcharts/basic.js": "/demo1/js/custom/documentation/charts/flotcharts/basic.js",
    "/demo1/js/custom/documentation/charts/flotcharts/dynamic.js": "/demo1/js/custom/documentation/charts/flotcharts/dynamic.js",
    "/demo1/js/custom/documentation/charts/flotcharts/pie.js": "/demo1/js/custom/documentation/charts/flotcharts/pie.js",
    "/demo1/js/custom/documentation/charts/flotcharts/stack.js": "/demo1/js/custom/documentation/charts/flotcharts/stack.js",
    "/demo1/js/custom/documentation/charts/flotcharts/tracking.js": "/demo1/js/custom/documentation/charts/flotcharts/tracking.js",
    "/demo1/js/custom/documentation/charts/google-charts/column.js": "/demo1/js/custom/documentation/charts/google-charts/column.js",
    "/demo1/js/custom/documentation/charts/google-charts/line.js": "/demo1/js/custom/documentation/charts/google-charts/line.js",
    "/demo1/js/custom/documentation/charts/google-charts/pie.js": "/demo1/js/custom/documentation/charts/google-charts/pie.js",
    "/demo1/js/custom/documentation/documentation.js": "/demo1/js/custom/documentation/documentation.js",
    "/demo1/js/custom/documentation/editors/ckeditor/balloon-block.js": "/demo1/js/custom/documentation/editors/ckeditor/balloon-block.js",
    "/demo1/js/custom/documentation/editors/ckeditor/balloon.js": "/demo1/js/custom/documentation/editors/ckeditor/balloon.js",
    "/demo1/js/custom/documentation/editors/ckeditor/classic.js": "/demo1/js/custom/documentation/editors/ckeditor/classic.js",
    "/demo1/js/custom/documentation/editors/ckeditor/document.js": "/demo1/js/custom/documentation/editors/ckeditor/document.js",
    "/demo1/js/custom/documentation/editors/ckeditor/inline.js": "/demo1/js/custom/documentation/editors/ckeditor/inline.js",
    "/demo1/js/custom/documentation/editors/quill/autosave.js": "/demo1/js/custom/documentation/editors/quill/autosave.js",
    "/demo1/js/custom/documentation/editors/quill/basic.js": "/demo1/js/custom/documentation/editors/quill/basic.js",
    "/demo1/js/custom/documentation/editors/tinymce/basic.js": "/demo1/js/custom/documentation/editors/tinymce/basic.js",
    "/demo1/js/custom/documentation/editors/tinymce/hidden.js": "/demo1/js/custom/documentation/editors/tinymce/hidden.js",
    "/demo1/js/custom/documentation/editors/tinymce/plugins.js": "/demo1/js/custom/documentation/editors/tinymce/plugins.js",
    "/demo1/js/custom/documentation/forms/clipboard.js": "/demo1/js/custom/documentation/forms/clipboard.js",
    "/demo1/js/custom/documentation/forms/daterangepicker.js": "/demo1/js/custom/documentation/forms/daterangepicker.js",
    "/demo1/js/custom/documentation/forms/dialer.js": "/demo1/js/custom/documentation/forms/dialer.js",
    "/demo1/js/custom/documentation/forms/dropzonejs.js": "/demo1/js/custom/documentation/forms/dropzonejs.js",
    "/demo1/js/custom/documentation/forms/flatpickr.js": "/demo1/js/custom/documentation/forms/flatpickr.js",
    "/demo1/js/custom/documentation/forms/formvalidation/advanced.js": "/demo1/js/custom/documentation/forms/formvalidation/advanced.js",
    "/demo1/js/custom/documentation/forms/formvalidation/basic.js": "/demo1/js/custom/documentation/forms/formvalidation/basic.js",
    "/demo1/js/custom/documentation/forms/image-input.js": "/demo1/js/custom/documentation/forms/image-input.js",
    "/demo1/js/custom/documentation/forms/inputmask.js": "/demo1/js/custom/documentation/forms/inputmask.js",
    "/demo1/js/custom/documentation/forms/multiselectsplitter.js": "/demo1/js/custom/documentation/forms/multiselectsplitter.js",
    "/demo1/js/custom/documentation/forms/nouislider.js": "/demo1/js/custom/documentation/forms/nouislider.js",
    "/demo1/js/custom/documentation/forms/password-meter.js": "/demo1/js/custom/documentation/forms/password-meter.js",
    "/demo1/js/custom/documentation/forms/recaptcha.js": "/demo1/js/custom/documentation/forms/recaptcha.js",
    "/demo1/js/custom/documentation/forms/tagify.js": "/demo1/js/custom/documentation/forms/tagify.js",
    "/demo1/js/custom/documentation/general/blockui.js": "/demo1/js/custom/documentation/general/blockui.js",
    "/demo1/js/custom/documentation/general/cropper.js": "/demo1/js/custom/documentation/general/cropper.js",
    "/demo1/js/custom/documentation/general/datatables/advanced.js": "/demo1/js/custom/documentation/general/datatables/advanced.js",
    "/demo1/js/custom/documentation/general/datatables/api.js": "/demo1/js/custom/documentation/general/datatables/api.js",
    "/demo1/js/custom/documentation/general/datatables/basic.js": "/demo1/js/custom/documentation/general/datatables/basic.js",
    "/demo1/js/custom/documentation/general/datatables/server-side.js": "/demo1/js/custom/documentation/general/datatables/server-side.js",
    "/demo1/js/custom/documentation/general/draggable/cards.js": "/demo1/js/custom/documentation/general/draggable/cards.js",
    "/demo1/js/custom/documentation/general/draggable/multiple-containers.js": "/demo1/js/custom/documentation/general/draggable/multiple-containers.js",
    "/demo1/js/custom/documentation/general/draggable/restricted.js": "/demo1/js/custom/documentation/general/draggable/restricted.js",
    "/demo1/js/custom/documentation/general/draggable/swappable.js": "/demo1/js/custom/documentation/general/draggable/swappable.js",
    "/demo1/js/custom/documentation/general/drawer.js": "/demo1/js/custom/documentation/general/drawer.js",
    "/demo1/js/custom/documentation/general/fullcalendar/background-events.js": "/demo1/js/custom/documentation/general/fullcalendar/background-events.js",
    "/demo1/js/custom/documentation/general/fullcalendar/basic.js": "/demo1/js/custom/documentation/general/fullcalendar/basic.js",
    "/demo1/js/custom/documentation/general/fullcalendar/drag-n-drop.js": "/demo1/js/custom/documentation/general/fullcalendar/drag-n-drop.js",
    "/demo1/js/custom/documentation/general/fullcalendar/locales.js": "/demo1/js/custom/documentation/general/fullcalendar/locales.js",
    "/demo1/js/custom/documentation/general/fullcalendar/selectable-dates.js": "/demo1/js/custom/documentation/general/fullcalendar/selectable-dates.js",
    "/demo1/js/custom/documentation/general/fullcalendar/timezone.js": "/demo1/js/custom/documentation/general/fullcalendar/timezone.js",
    "/demo1/js/custom/documentation/general/jkanban/basic.js": "/demo1/js/custom/documentation/general/jkanban/basic.js",
    "/demo1/js/custom/documentation/general/jkanban/color.js": "/demo1/js/custom/documentation/general/jkanban/color.js",
    "/demo1/js/custom/documentation/general/jkanban/restricted.js": "/demo1/js/custom/documentation/general/jkanban/restricted.js",
    "/demo1/js/custom/documentation/general/jkanban/rich.js": "/demo1/js/custom/documentation/general/jkanban/rich.js",
    "/demo1/js/custom/documentation/general/jstree/ajax.js": "/demo1/js/custom/documentation/general/jstree/ajax.js",
    "/demo1/js/custom/documentation/general/jstree/basic.js": "/demo1/js/custom/documentation/general/jstree/basic.js",
    "/demo1/js/custom/documentation/general/jstree/checkable.js": "/demo1/js/custom/documentation/general/jstree/checkable.js",
    "/demo1/js/custom/documentation/general/jstree/contextual.js": "/demo1/js/custom/documentation/general/jstree/contextual.js",
    "/demo1/js/custom/documentation/general/jstree/customicons.js": "/demo1/js/custom/documentation/general/jstree/customicons.js",
    "/demo1/js/custom/documentation/general/jstree/dragdrop.js": "/demo1/js/custom/documentation/general/jstree/dragdrop.js",
    "/demo1/js/custom/documentation/general/scroll.js": "/demo1/js/custom/documentation/general/scroll.js",
    "/demo1/js/custom/documentation/general/search/basic.js": "/demo1/js/custom/documentation/general/search/basic.js",
    "/demo1/js/custom/documentation/general/search/menu.js": "/demo1/js/custom/documentation/general/search/menu.js",
    "/demo1/js/custom/documentation/general/search/responsive.js": "/demo1/js/custom/documentation/general/search/responsive.js",
    "/demo1/js/custom/documentation/general/stepper.js": "/demo1/js/custom/documentation/general/stepper.js",
    "/demo1/js/custom/documentation/general/toastr.js": "/demo1/js/custom/documentation/general/toastr.js",
    "/demo1/js/custom/documentation/general/typed.js": "/demo1/js/custom/documentation/general/typed.js",
    "/demo1/js/custom/documentation/general/vis-timeline/basic.js": "/demo1/js/custom/documentation/general/vis-timeline/basic.js",
    "/demo1/js/custom/documentation/general/vis-timeline/group.js": "/demo1/js/custom/documentation/general/vis-timeline/group.js",
    "/demo1/js/custom/documentation/general/vis-timeline/interaction.js": "/demo1/js/custom/documentation/general/vis-timeline/interaction.js",
    "/demo1/js/custom/documentation/general/vis-timeline/style.js": "/demo1/js/custom/documentation/general/vis-timeline/style.js",
    "/demo1/js/custom/documentation/general/vis-timeline/template.js": "/demo1/js/custom/documentation/general/vis-timeline/template.js",
    "/demo1/js/custom/widgets.js": "/demo1/js/custom/widgets.js",
    "/demo1/plugins/global/plugins.bundle.css": "/demo1/plugins/global/plugins.bundle.css",
    "/demo1/plugins/custom/datatables/datatables.bundle.css": "/demo1/plugins/custom/datatables/datatables.bundle.css",
    "/demo1/plugins/custom/leaflet/leaflet.bundle.css": "/demo1/plugins/custom/leaflet/leaflet.bundle.css",
    "/demo1/plugins/custom/fullcalendar/fullcalendar.bundle.css": "/demo1/plugins/custom/fullcalendar/fullcalendar.bundle.css",
    "/demo1/plugins/custom/prismjs/prismjs.bundle.css": "/demo1/plugins/custom/prismjs/prismjs.bundle.css",
    "/demo1/css/style.bundle.css": "/demo1/css/style.bundle.css",
    "/demo1/plugins/global/plugins-custom.bundle.css": "/demo1/plugins/global/plugins-custom.bundle.css"
}
